%YAML 1.1
%TAG !u! tag:unity3d.com,2011:
--- !u!114 &11400000
MonoBehaviour:
  m_ObjectHideFlags: 0
  m_CorrespondingSourceObject: {fileID: 0}
  m_PrefabInstance: {fileID: 0}
  m_PrefabAsset: {fileID: 0}
  m_GameObject: {fileID: 0}
  m_Enabled: 1
  m_EditorHideFlags: 0
  m_Script: {fileID: 11500000, guid: 4225531bb2588cf4093c39b97c2d9eba, type: 3}
  m_Name: RattleOfBones
  m_EditorClassIdentifier: 
  cardName: Rattle of Bones
  cardType: Spell
  cardRarity: Common
  flavorText: Spooky scary skeletons send shivers down your spine~
  abilityText: Prevents the targeted unit from moving in the next turn.
  cardArtworkImage: {fileID: 0}
  manaCost: 1
  specialManaCost: 0
  spellAbilities:
  - {fileID: 11400000, guid: ae54e9f537044494ea5a2fdbd3b61674, type: 2}
