%YAML 1.1
%TAG !u! tag:unity3d.com,2011:
--- !u!114 &11400000
MonoBehaviour:
  m_ObjectHideFlags: 0
  m_CorrespondingSourceObject: {fileID: 0}
  m_PrefabInstance: {fileID: 0}
  m_PrefabAsset: {fileID: 0}
  m_GameObject: {fileID: 0}
  m_Enabled: 1
  m_EditorHideFlags: 0
  m_Script: {fileID: 11500000, guid: e64106b41c3960c44b698e1f099b1d6d, type: 3}
  m_Name: Locust_Swarm_effect1
  m_EditorClassIdentifier: 
  effectName: Locust Swarm
  turnsInEffect: 1
  activatesImmediatelyWhenAdded: 1
  effectActivationType: 0
  effectTargetType: 1
  standardResourceAmount: -1
  specialResourceAmount: -1
