%YAML 1.1
%TAG !u! tag:unity3d.com,2011:
--- !u!114 &11400000
MonoBehaviour:
  m_ObjectHideFlags: 0
  m_CorrespondingSourceObject: {fileID: 0}
  m_PrefabInstance: {fileID: 0}
  m_PrefabAsset: {fileID: 0}
  m_GameObject: {fileID: 0}
  m_Enabled: 1
  m_EditorHideFlags: 0
  m_Script: {fileID: 11500000, guid: 01fcc80acd462d246a5b1d90a199ec5d, type: 3}
  m_Name: Rattle_of_Bones_effect1
  m_EditorClassIdentifier: 
  effectName: Rattle of Bones
  turnsInEffect: 1
  activatesImmediatelyWhenAdded: 0
  effectActivationType: 12
  effectTargetType: 0
