%YAML 1.1
%TAG !u! tag:unity3d.com,2011:
--- !u!114 &11400000
MonoBehaviour:
  m_ObjectHideFlags: 0
  m_CorrespondingSourceObject: {fileID: 0}
  m_PrefabInstance: {fileID: 0}
  m_PrefabAsset: {fileID: 0}
  m_GameObject: {fileID: 0}
  m_Enabled: 1
  m_EditorHideFlags: 0
  m_Script: {fileID: 11500000, guid: 707bc717663bd794dbc4d092e0aace3b, type: 3}
  m_Name: TotT_effectNew3
  m_EditorClassIdentifier: 
  effectName: Talking of the Trees
  turnsInEffect: 1
  activatesImmediatelyWhenAdded: 0
  effectActivationType: 5
  effectTargetType: 6
  player: {fileID: 0}
  targetTileTypes:
  - {fileID: 11400000, guid: cff3e55e35f51e846961fa2a2d539a8c, type: 2}
  - {fileID: 11400000, guid: baa61022ddf49294cbca8a95f0805030, type: 2}
  tileSearchRange: 10
  visionRange: -2
