%YAML 1.1
%TAG !u! tag:unity3d.com,2011:
--- !u!114 &11400000
MonoBehaviour:
  m_ObjectHideFlags: 0
  m_CorrespondingSourceObject: {fileID: 0}
  m_PrefabInstance: {fileID: 0}
  m_PrefabAsset: {fileID: 0}
  m_GameObject: {fileID: 0}
  m_Enabled: 1
  m_EditorHideFlags: 0
  m_Script: {fileID: 11500000, guid: 690f33c1ebe8c0b48a765db6cca44c2d, type: 3}
  m_Name: Spell_Strange_Sickness
  m_EditorClassIdentifier: 
  abilityName: Strange Sickness
  description: Targeted Control Point does not give any resources for next 2 turns.
  targetType: 1
  abilityEvents:
  - spawnPosition: 0
    abilityEffects:
    - {fileID: 11400000, guid: 96d304452e83daf488918220fe6527dc, type: 2}
