%YAML 1.1
%TAG !u! tag:unity3d.com,2011:
--- !u!114 &11400000
MonoBehaviour:
  m_ObjectHideFlags: 0
  m_CorrespondingSourceObject: {fileID: 0}
  m_PrefabInstance: {fileID: 0}
  m_PrefabAsset: {fileID: 0}
  m_GameObject: {fileID: 0}
  m_Enabled: 1
  m_EditorHideFlags: 0
  m_Script: {fileID: 11500000, guid: 1d4aa8d0475e6254f8b3e684785e96d1, type: 3}
  m_Name: CP_Influence
  m_EditorClassIdentifier: 
  controlPointName: Unit Factory
  standardResPerTurn: 0
  specialResPerTurn: 0
  visibilityRange: 1
  canSpawnUnits: 1
  canTradeCards: 0
  resourceGainsAllowed: 1
