%YAML 1.1
%TAG !u! tag:unity3d.com,2011:
--- !u!114 &11400000
MonoBehaviour:
  m_ObjectHideFlags: 0
  m_CorrespondingSourceObject: {fileID: 0}
  m_PrefabInstance: {fileID: 0}
  m_PrefabAsset: {fileID: 0}
  m_GameObject: {fileID: 0}
  m_Enabled: 1
  m_EditorHideFlags: 0
  m_Script: {fileID: 11500000, guid: c84d59a400f16d14ba08fd147cd6f888, type: 3}
  m_Name: Bridge
  m_EditorClassIdentifier: 
  tile: {fileID: 1389125948638888, guid: a9684bd94f9c39149a3724d15b5151a6, type: 3}
  objectOnTop: {fileID: 100000, guid: 389d5010c2746414c8d7802f26578667, type: 3}
  tileName: Bridge
  description: Allows land units to cross rivers.
  movementCost: 1
  blocksLandMovement: 0
  blocksSeaMovement: 0
