%YAML 1.1
%TAG !u! tag:unity3d.com,2011:
--- !u!114 &11400000
MonoBehaviour:
  m_ObjectHideFlags: 0
  m_CorrespondingSourceObject: {fileID: 0}
  m_PrefabInstance: {fileID: 0}
  m_PrefabAsset: {fileID: 0}
  m_GameObject: {fileID: 0}
  m_Enabled: 1
  m_EditorHideFlags: 0
  m_Script: {fileID: 11500000, guid: c84d59a400f16d14ba08fd147cd6f888, type: 3}
  m_Name: CP_Influence
  m_EditorClassIdentifier: 
  tile: {fileID: 1328986990472984, guid: 4f49c09706dbf4a4e99dc6a51fab25cc, type: 3}
  objectOnTop: {fileID: 1975800551559042, guid: f4da999687480fd4abc77b148f373c54,
    type: 3}
  tileName: Unit Factory
  description: Allows its owner to summon units into the battlefield.
  movementCost: 1
  blocksLandMovement: 0
  blocksSeaMovement: 1
  blocksLineOfSight: 0
