%YAML 1.1
%TAG !u! tag:unity3d.com,2011:
--- !u!114 &11400000
MonoBehaviour:
  m_ObjectHideFlags: 0
  m_CorrespondingSourceObject: {fileID: 0}
  m_PrefabInstance: {fileID: 0}
  m_PrefabAsset: {fileID: 0}
  m_GameObject: {fileID: 0}
  m_Enabled: 1
  m_EditorHideFlags: 0
  m_Script: {fileID: 11500000, guid: c84d59a400f16d14ba08fd147cd6f888, type: 3}
  m_Name: Road
  m_EditorClassIdentifier: 
  tile: {fileID: 1328986990472984, guid: 4f49c09706dbf4a4e99dc6a51fab25cc, type: 3}
  objectOnTop: {fileID: 0}
  tileName: Road
  description: Allows land units to travel further distances.
  movementCost: 0.5
  blocksLandMovement: 0
  blocksSeaMovement: 1
