%YAML 1.1
%TAG !u! tag:unity3d.com,2011:
--- !u!114 &11400000
MonoBehaviour:
  m_ObjectHideFlags: 0
  m_CorrespondingSourceObject: {fileID: 0}
  m_PrefabInstance: {fileID: 0}
  m_PrefabAsset: {fileID: 0}
  m_GameObject: {fileID: 0}
  m_Enabled: 1
  m_EditorHideFlags: 0
  m_Script: {fileID: 11500000, guid: c84d59a400f16d14ba08fd147cd6f888, type: 3}
  m_Name: ShallowWater
  m_EditorClassIdentifier: 
  tile: {fileID: 1829116461306768, guid: cd4f2cbde7d033f45a5d96afb77a69e1, type: 3}
  objectOnTop: {fileID: 0}
  tileName: Shallow Water
  description: Slows down land units.
  movementCost: 1.5
  blocksLandMovement: 0
  blocksSeaMovement: 0
