%YAML 1.1
%TAG !u! tag:unity3d.com,2011:
--- !u!114 &11400000
MonoBehaviour:
  m_ObjectHideFlags: 0
  m_CorrespondingSourceObject: {fileID: 0}
  m_PrefabInstance: {fileID: 0}
  m_PrefabAsset: {fileID: 0}
  m_GameObject: {fileID: 0}
  m_Enabled: 1
  m_EditorHideFlags: 0
  m_Script: {fileID: 11500000, guid: c84d59a400f16d14ba08fd147cd6f888, type: 3}
  m_Name: Wall
  m_EditorClassIdentifier: 
  tile: {fileID: 1025798088175778, guid: d3c74397fa533914f914ecf70ad28d73, type: 3}
  objectOnTop: {fileID: 0}
  tileName: Wall
  description: A sturdy wall that blocks all movement.
  movementCost: 2
  blocksLandMovement: 1
  blocksSeaMovement: 1
  blocksLineOfSight: 1
