%YAML 1.1
%TAG !u! tag:unity3d.com,2011:
--- !u!114 &11400000
MonoBehaviour:
  m_ObjectHideFlags: 0
  m_CorrespondingSourceObject: {fileID: 0}
  m_PrefabInstance: {fileID: 0}
  m_PrefabAsset: {fileID: 0}
  m_GameObject: {fileID: 0}
  m_Enabled: 1
  m_EditorHideFlags: 0
  m_Script: {fileID: 11500000, guid: 1b8f91fef90160b49bdb966d86bd3bc6, type: 3}
  m_Name: SouthernDragon
  m_EditorClassIdentifier: 
  cardName: Southern Dragon
  cardType: Flying/Creature
  cardRarity: Rare
  flavorText: A fire-breathing dragon born to hunt and wreak havoc.
  cardArtworkImage: {fileID: 0}
  manaCost: 5
  specialManaCost: 2
  attackType: Magic
  abilityText: '-'
  unitModel: {fileID: 7551926688870959381, guid: 2a98e0a1a651283469a70c2638cf70cf,
    type: 3}
  health: 5
  attackPower: 5
  attackRangeMin: 1
  attackRangeMax: 1
  vision: 4
  movementPoints: 4
