%YAML 1.1
%TAG !u! tag:unity3d.com,2011:
--- !u!114 &11400000
MonoBehaviour:
  m_ObjectHideFlags: 0
  m_CorrespondingSourceObject: {fileID: 0}
  m_PrefabInstance: {fileID: 0}
  m_PrefabAsset: {fileID: 0}
  m_GameObject: {fileID: 0}
  m_Enabled: 1
  m_EditorHideFlags: 0
  m_Script: {fileID: 11500000, guid: bcad4d5f0146d3d4c81ba4f6fca84724, type: 3}
  m_Name: effect_base_Rattle_of_Bones
  m_EditorClassIdentifier: 
  effectName: Rattle of Bones
  turnsInEffect: 1
  activatesImmediatelyWhenAdded: 0
  effectActivationType: 16
  effectTargetType: 0
  effectsToBeAdded:
  - {fileID: 11400000, guid: b4e5a96fbf31297459428eb5a1aaac85, type: 2}
